%YAML 1.1
%TAG !u! tag:unity3d.com,2011:
--- !u!114 &11400000
MonoBehaviour:
  m_ObjectHideFlags: 0
  m_PrefabParentObject: {fileID: 0}
  m_PrefabInternal: {fileID: 0}
  m_GameObject: {fileID: 0}
  m_Enabled: 1
  m_EditorHideFlags: 0
  m_Script: {fileID: 11500000, guid: 003cdb4816885914b933ef200f8e856d, type: 3}
  m_Name: StatSheet
  m_EditorClassIdentifier: 
  playerName: 
  gameSessions: []
  gamesPlayed: 0
  totalScore: 0
  averageScore: 0
  highestScore: 0
  totalCheeseEaten: 0
  goudaCheeseEaten: 0
  moldyCheeseEaten: 0
  totalCheeseSquashed: 0
  goudaCheeseSquashed: 0
  moldyCheeseSquashed: 0
