%YAML 1.1
%TAG !u! tag:unity3d.com,2011:
--- !u!114 &11400000
MonoBehaviour:
  m_ObjectHideFlags: 0
  m_PrefabParentObject: {fileID: 0}
  m_PrefabInternal: {fileID: 0}
  m_GameObject: {fileID: 0}
  m_Enabled: 1
  m_EditorHideFlags: 0
  m_Script: {fileID: 11500000, guid: 0f30e637fee8788408555ffb62cc7805, type: 3}
  m_Name: __actions_buggy
  m_EditorClassIdentifier: 
  allActions:
  - {fileID: 11400000, guid: 2f18cd1e4bb445a48b1d8eeeba8adbcc, type: 2}
  - {fileID: 11400000, guid: 1c80744d8b70a044f8bc9685b57b8bf4, type: 2}
  - {fileID: 11400000, guid: c9d8a4bd8e6ca5b4aa72441dab7b0fd6, type: 2}
  - {fileID: 11400000, guid: 3d838098f39ee9e41914cd1ae3ccf695, type: 2}
  nonVisualInActions:
  - {fileID: 11400000, guid: 2f18cd1e4bb445a48b1d8eeeba8adbcc, type: 2}
  - {fileID: 11400000, guid: 1c80744d8b70a044f8bc9685b57b8bf4, type: 2}
  - {fileID: 11400000, guid: c9d8a4bd8e6ca5b4aa72441dab7b0fd6, type: 2}
  - {fileID: 11400000, guid: 3d838098f39ee9e41914cd1ae3ccf695, type: 2}
  visualActions: []
  poseActions: []
  skeletonActions: []
  outActionArray: []
  fullPath: /actions/buggy
  usage: single
  inActions: {fileID: 11400000, guid: b22763a596af8254c8a3a7aa616ce1c2, type: 2}
