%YAML 1.1
%TAG !u! tag:unity3d.com,2011:
--- !u!114 &11400000
MonoBehaviour:
  m_ObjectHideFlags: 0
  m_PrefabParentObject: {fileID: 0}
  m_PrefabInternal: {fileID: 0}
  m_GameObject: {fileID: 0}
  m_Enabled: 1
  m_EditorHideFlags: 0
  m_Script: {fileID: 11500000, guid: 8b12b35c92ceafa4e8af59e040036593, type: 3}
  m_Name: Gouda
  m_EditorClassIdentifier: 
  ct: 0
  moveSpeed: 2
  baseScale: 1
  turnSpeed: 10
  cosmetics: []
