# This file uses centimeters as units for non-parametric coordinates.

mtllib Knife_low.mtl
g default
v -0.102884 -0.190765 0.252330
v -0.102884 -0.059822 0.286794
v -0.102884 -0.060144 0.219251
v 0.257884 -0.212781 0.253034
v 0.154374 -0.079772 0.279088
v -0.102885 0.100176 0.286697
v 0.154373 -0.079772 0.226957
v -0.102884 0.100112 0.219347
v 0.258307 -0.212871 0.201773
v 0.361865 -0.147986 0.253023
v 0.258306 -0.212867 0.304272
v -0.659458 0.099288 0.286674
v 0.121567 0.098777 0.278881
v -0.102885 0.100522 0.253022
v 0.154712 -0.079722 0.304265
v 0.121579 0.098782 0.227142
v -0.659458 0.099143 0.219370
v 0.154712 -0.079723 0.201780
v -0.659458 -0.034803 0.219290
v 0.121518 0.098918 0.253022
v 0.360205 0.133568 0.253022
v 0.121919 0.098573 0.201771
v -1.072929 0.096771 0.219370
v -0.659458 0.099479 0.253022
v 0.185430 -0.065965 0.162182
v 0.453742 -0.126158 0.253023
v 0.361818 -0.147872 0.304262
v 0.361819 -0.147872 0.201782
v 0.265906 -0.169600 0.329331
v 0.265903 -0.169600 0.176715
v 0.453743 0.133794 0.253026
v 0.361851 0.117027 0.201809
v 0.361851 0.117020 0.304242
v 0.161025 0.066022 0.176715
v 0.361831 -0.002237 0.162080
v 0.453734 -0.126035 0.304262
v 0.349024 -0.117302 0.329355
v 0.185427 -0.065959 0.343863
v 0.121921 0.098575 0.304274
v 0.349022 -0.117296 0.176687
v 0.453735 -0.126036 0.201782
v 0.743961 -0.155115 0.253022
v -0.659458 -0.036025 0.286759
v -1.072929 0.097115 0.286674
v 0.161022 0.066018 0.329326
v 0.361831 -0.002238 0.343964
v -0.659458 -0.129112 0.254694
v -1.072930 -0.018116 0.219294
v -1.305290 0.094918 0.219423
v -1.072929 0.097241 0.253022
v 0.451534 -0.092951 0.176688
v 0.743969 -0.154993 0.201791
v 0.361850 0.066095 0.176662
v 0.453744 0.117040 0.201810
v 0.453720 0.019568 0.162082
v 0.453741 0.066095 0.176659
v 0.743963 -0.009386 0.162079
v 0.746125 -0.122345 0.176687
v 0.743966 0.121644 0.201811
v 0.361850 0.066092 0.329383
v 0.453746 0.117034 0.304241
v 0.743964 0.138399 0.253026
v 0.936174 0.124695 0.201809
v 0.743962 0.070699 0.176663
v -1.072930 -0.020358 0.286749
v -1.305290 0.094918 0.286622
v 0.453741 0.066092 0.329386
v 0.743966 0.121637 0.304242
v 0.936172 0.141450 0.253024
v -1.305236 0.095121 0.253022
v 0.935413 -0.128566 0.176687
v 0.936165 -0.161310 0.201791
v 0.936174 0.124690 0.304240
v 0.743962 0.070696 0.329382
v 0.453720 0.019550 0.343964
v 0.743969 -0.154993 0.304253
v 0.451535 -0.092957 0.329355
v 0.936168 -0.161432 0.253022
v 0.936168 -0.015704 0.162078
v 0.746126 -0.122351 0.329355
v 0.936165 -0.161310 0.304253
v 0.743963 -0.009386 0.343966
v 0.936170 0.073750 0.176663
v 1.127231 -0.113329 0.176687
v 1.131666 -0.145783 0.201791
v 0.935414 -0.128572 0.329355
v 1.131683 -0.145904 0.253022
v 1.131680 -0.001975 0.162079
v 0.936168 -0.015704 0.343966
v 1.131666 -0.145783 0.304253
v 1.131684 0.077304 0.176662
v 1.127232 -0.113335 0.329355
v 0.936170 0.073747 0.329382
v 1.247445 -0.089713 0.176688
v 1.252029 -0.122136 0.201791
v 1.131682 0.128243 0.201803
v 1.252046 -0.122257 0.253022
v 1.252021 0.018974 0.162080
v 1.131680 -0.001975 0.343966
v 1.131683 0.145005 0.253019
v 1.252029 -0.122136 0.304253
v 1.252106 0.079486 0.176661
v 1.131684 0.077304 0.329382
v 1.252048 0.130432 0.201808
v 1.382464 0.077592 0.176663
v 1.252048 0.147188 0.253026
v 1.384139 0.128513 0.201811
v 1.384153 0.029428 0.162086
v 1.554819 0.067367 0.196535
v 1.570285 0.116896 0.215120
v 1.384141 0.145268 0.253025
v 1.624556 -0.008762 0.185793
v 1.385379 -0.077519 0.176693
v 1.252051 0.130426 0.304243
v 1.131682 0.128250 0.304233
v 1.247446 -0.089718 0.329355
v 1.570318 0.133658 0.253044
v 1.384139 0.128506 0.304241
v 1.652669 0.009188 0.215099
v 1.252106 0.079484 0.329384
v 1.384141 -0.110447 0.201794
v 1.514081 -0.131734 0.215697
v 1.384137 -0.110570 0.253023
v 1.531077 -0.102600 0.196541
v 1.594408 -0.145471 0.215128
v 1.513994 -0.131851 0.253022
v 1.384141 -0.110447 0.304250
v 1.514081 -0.131734 0.290347
v 1.594475 -0.145607 0.253022
v 1.385357 -0.077518 0.329353
v 1.577957 -0.109592 0.196568
v 1.633565 -0.080171 0.215108
v 1.597193 -0.077530 0.196561
v 1.594417 -0.145475 0.290920
v 1.633725 -0.080164 0.253022
v 1.531070 -0.102598 0.309504
v 1.652786 0.009284 0.253023
v 1.570286 0.116896 0.290924
v 1.382464 0.077589 0.329382
v 1.252038 0.018976 0.343964
v 1.554819 0.067367 0.309510
v 1.384153 0.029411 0.343960
v 1.652669 0.009189 0.290946
v 1.624548 -0.008752 0.320251
v 1.633572 -0.080167 0.290934
v 1.577957 -0.109591 0.309477
v 1.597194 -0.077530 0.309482
v -1.343366 0.016770 0.275172
v -1.343367 0.016773 0.230873
v -1.356419 -0.034371 0.253023
v -1.072930 -0.085519 0.252197
v -1.461592 0.076544 0.258731
v -1.461592 0.076544 0.251572
v -1.482028 0.095039 0.258731
v -1.482886 0.100465 0.260185
v -1.481988 0.095860 0.255152
v -1.482517 0.101634 0.255036
v -1.482079 0.095100 0.251572
v -1.482969 0.100468 0.249912
v -1.484441 0.064128 0.253904
v -1.484891 0.062321 0.253854
v -1.484882 0.062335 0.261639
v -1.484447 0.064147 0.261125
vt 0.516512 0.774372
vt 0.557232 0.932491
vt 0.457276 0.771724
vt 0.558682 0.777130
vt 0.616513 0.774270
vt 0.613153 0.885109
vt 0.926956 0.691861
vt 0.906029 0.692577
vt 0.808551 0.844357
vt 0.947086 0.693299
vt 0.518562 0.932700
vt 0.461362 0.884665
vt 0.950657 0.762839
vt 0.383787 0.867060
vt 0.696055 0.321318
vt 0.387278 0.768703
vt 0.398420 0.525160
vt 0.689192 0.867492
vt 0.919523 0.761097
vt 0.685298 0.770998
vt 0.720634 0.321249
vt 0.721195 0.524354
vt 0.889704 0.705409
vt 0.788362 0.844937
vt 0.909276 0.760680
vt 0.807246 0.793852
vt 0.786040 0.794804
vt 0.967930 0.695175
vt 0.960911 0.762992
vt 0.828733 0.843897
vt 0.828471 0.793712
vt 0.407315 0.344129
vt 0.696634 0.524423
vt 0.457651 0.527756
vt 0.698679 0.239402
vt 0.708345 0.321284
vt 0.708914 0.524388
vt 0.708116 0.239394
vt 0.965694 0.836174
vt 0.188231 0.658852
vt 0.177775 0.659072
vt 0.673304 0.532068
vt 0.615786 0.534852
vt 0.900441 0.833485
vt 0.572533 0.536834
vt 0.166008 0.561637
vt 0.187639 0.561185
vt 0.663644 0.354489
vt 0.614387 0.357141
vt 0.721620 0.675240
vt 0.709339 0.675273
vt 0.888355 0.759931
vt 0.885580 0.815624
vt 0.260983 0.636182
vt 0.806246 0.754982
vt 0.827471 0.754319
vt 0.785013 0.755411
vt 0.983520 0.708891
vt 0.981841 0.763406
vt 0.844989 0.832487
vt 0.845377 0.794091
vt 0.771539 0.834379
vt 0.769175 0.796053
vt 0.165591 0.524171
vt 0.187663 0.524178
vt 0.143523 0.524667
vt 0.144368 0.561665
vt 0.145945 0.659320
vt 0.206045 0.643761
vt 0.210485 0.561875
vt 0.238789 0.562839
vt 0.285749 0.569812
vt 0.844526 0.754209
vt 0.046474 0.572465
vt 0.072712 0.638271
vt 0.093271 0.564452
vt 0.981520 0.819164
vt 0.767972 0.756179
vt 0.823979 0.635076
vt 0.803174 0.635652
vt 0.782367 0.636147
vt 0.500741 0.529583
vt 0.458649 0.346671
vt 0.697059 0.675308
vt 0.127800 0.644630
vt 0.121545 0.562862
vt 0.582183 0.358364
vt 0.656939 0.254550
vt 0.622016 0.240415
vt 0.277164 0.526791
vt 0.230812 0.524894
vt 0.765635 0.636494
vt 0.210883 0.524530
vt 0.243181 0.406391
vt 0.209781 0.406200
vt 0.289759 0.405746
vt 0.186438 0.406106
vt 0.164283 0.406242
vt 0.120319 0.525535
vt 0.142129 0.406597
vt 0.185610 0.327871
vt 0.163416 0.328051
vt 0.208985 0.327847
vt 0.697318 0.760102
vt 0.490924 0.347704
vt 0.100397 0.526341
vt 0.118796 0.407209
vt 0.141223 0.328363
vt 0.763489 0.558282
vt 0.780297 0.557860
vt 0.292673 0.328017
vt 0.246171 0.327773
vt 0.801158 0.557310
vt 0.117854 0.328857
vt 0.085410 0.408141
vt 0.054104 0.529264
vt 0.840705 0.634562
vt 0.822020 0.556787
vt 0.838826 0.556343
vt 0.761548 0.478766
vt 0.778354 0.478070
vt 0.286850 0.248882
vt 0.241009 0.247747
vt 0.799101 0.477375
vt 0.080677 0.329609
vt 0.836674 0.476832
vt 0.819856 0.477002
vt 0.207991 0.248292
vt 0.184682 0.248563
vt 0.084063 0.249488
vt 0.835702 0.426846
vt 0.776758 0.427975
vt 0.276804 0.198669
vt 0.232223 0.198621
vt 0.759947 0.428796
vt 0.797812 0.427293
vt 0.162540 0.248824
vt 0.818874 0.426891
vt 0.206898 0.199539
vt 0.117085 0.249300
vt 0.140398 0.249054
vt 0.183851 0.200219
vt 0.162001 0.200512
vt 0.205599 0.146905
vt 0.225804 0.144931
vt 0.182873 0.147383
vt 0.161416 0.147783
vt 0.177800 0.071899
vt 0.269260 0.140341
vt 0.228624 0.047290
vt 0.200059 0.076673
vt 0.776897 0.217675
vt 0.775024 0.162295
vt 0.160573 0.072437
vt 0.218022 0.032557
vt 0.758222 0.373555
vt 0.765041 0.313879
vt 0.775194 0.373417
vt 0.117095 0.200535
vt 0.140150 0.200703
vt 0.139955 0.147859
vt 0.834588 0.371599
vt 0.047186 0.201215
vt 0.091759 0.200172
vt 0.790827 0.156183
vt 0.143356 0.072281
vt 0.792396 0.217183
vt 0.256366 0.034760
vt 0.117227 0.147885
vt 0.796414 0.372948
vt 0.779891 0.319436
vt 0.288802 0.080722
vt 0.285853 0.046504
vt 0.817630 0.372324
vt 0.795028 0.319090
vt 0.273143 0.077211
vt 0.271747 0.057371
vt 0.778703 0.286133
vt 0.794169 0.285735
vt 0.810162 0.318657
vt 0.032578 0.083564
vt 0.809636 0.285333
vt 0.824706 0.312346
vt 0.053437 0.142745
vt 0.257622 0.052026
vt 0.777871 0.255002
vt 0.793363 0.254569
vt 0.808857 0.254198
vt 0.034766 0.049286
vt 0.048155 0.079709
vt 0.049110 0.059841
vt 0.806907 0.161470
vt 0.807900 0.216873
vt 0.121209 0.077547
vt 0.096977 0.146360
vt 0.092002 0.048808
vt 0.102272 0.033841
vt 0.063988 0.036891
vt 0.063113 0.054183
vt 0.474005 0.222547
vt 0.910727 0.834759
vt 0.305298 0.605029
vt 0.955345 0.836874
vt 0.027714 0.608106
vt 0.038827 0.408529
vt 0.034190 0.330884
vt 0.038256 0.251639
vt 0.167090 0.659221
vt 0.156412 0.659314
vt 0.717560 0.239345
vt 0.707105 0.824921
vt 0.710303 0.826978
vt 0.709579 0.760052
vt 0.721841 0.760032
vt 0.710942 0.824942
vt 0.709028 0.824716
vt 0.707552 0.837032
vt 0.707638 0.826982
vt 0.708971 0.826781
vt 0.710164 0.837055
vt 0.636575 0.177392
vt 0.642890 0.186708
vt 0.650225 0.177334
vt 0.652626 0.176871
vt 0.449432 0.227620
vt 0.434333 0.164017
vt 0.413933 0.242297
vt 0.416536 0.163482
vt 0.418987 0.163916
vt 0.426613 0.173292
vt 0.917309 0.357256
vt 0.934347 0.357239
vt 0.911671 0.419146
vt 0.632987 0.175437
vt 0.597903 0.235432
vt 0.928858 0.419139
vt 0.928990 0.423570
vt 0.910460 0.423585
vt 0.635781 0.177278
vt 0.433492 0.164131
vn -0.054956 -0.998474 -0.005440
vn -0.001567 -0.123296 -0.992369
vn -0.096023 -0.191809 -0.976724
vn -0.097922 -0.995193 0.001525
vn -0.097640 -0.195443 0.975842
vn -0.000494 -0.121640 0.992574
vn -0.217054 -0.902973 -0.370846
vn -0.815487 -0.386591 -0.430730
vn -0.208366 -0.072079 -0.975391
vn -0.073221 -0.315872 -0.945972
vn -0.041090 0.780495 -0.623810
vn -0.478237 0.654462 -0.585635
vn -0.084317 0.364737 -0.927285
vn -0.065710 0.997839 0.000030
vn -0.041142 0.999153 -0.000327
vn 0.085903 -0.210837 -0.973740
vn 0.366431 -0.835798 -0.408865
vn 0.010514 0.203595 -0.978999
vn -0.084362 0.364962 0.927192
vn -0.203263 0.235409 -0.950403
vn -0.478163 0.654599 0.585543
vn -0.041106 0.780510 0.623790
vn 0.405270 -0.914197 0.000012
vn -0.217074 -0.902938 0.370920
vn -0.815478 -0.386559 0.430775
vn 0.005628 0.026716 -0.999627
vn 0.010522 0.203272 0.979066
vn 0.000473 0.999999 -0.001271
vn 0.366422 -0.835809 0.408850
vn -0.073212 -0.315860 0.945977
vn -0.208361 -0.072065 0.975394
vn -0.021375 0.295061 -0.955239
vn -0.003233 -0.247575 -0.968863
vn -0.015932 -0.906915 -0.421013
vn 0.085904 -0.210839 0.973739
vn -0.018636 -0.999826 0.000001
vn -0.203274 0.235383 0.950408
vn -0.001738 0.011621 -0.999931
vn 0.005623 0.026720 0.999627
vn -0.015931 -0.906938 0.420962
vn -0.002065 0.331315 -0.943518
vn -0.003233 -0.247597 0.968858
vn -0.021380 0.295035 0.955247
vn -0.019494 -0.268042 -0.963210
vn -0.067162 -0.917620 -0.391745
vn -0.009152 0.747398 -0.664314
vn -0.072924 -0.997338 0.000000
vn -0.003951 -0.005072 -0.999979
vn -0.001737 0.011595 0.999931
vn -0.012343 0.999924 0.000062
vn -0.067164 -0.917640 0.391697
vn 0.000113 0.307827 -0.951443
vn -0.002066 0.331260 0.943537
vn -0.007827 0.333412 -0.942749
vn -0.010269 0.293159 -0.956009
vn -0.013600 0.748630 -0.662848
vn -0.000793 0.750480 -0.660893
vn -0.009155 0.747362 0.664354
vn -0.019492 -0.268054 0.963207
vn -0.107443 -0.889666 -0.443791
vn 0.002366 -0.893261 -0.449532
vn 0.051136 -0.247075 -0.967646
vn 0.060821 -0.241406 -0.968516
vn -0.018161 0.999835 -0.000017
vn -0.001037 0.999999 0.000034
vn -0.011877 0.748572 -0.662947
vn 0.006086 -0.270349 -0.962743
vn 0.021879 -0.921722 -0.387233
vn 0.121099 -0.301916 -0.945612
vn 0.363060 -0.846219 -0.390001
vn -0.013601 0.748645 0.662831
vn -0.000798 0.750445 0.660933
vn -0.003951 -0.005085 0.999979
vn 0.023749 -0.999718 -0.000000
vn -0.010270 0.293166 0.956007
vn -0.007834 0.333382 0.942759
vn 0.000413 -0.004296 -0.999991
vn 0.051138 -0.247096 0.967641
vn 0.002364 -0.893265 0.449525
vn -0.107451 -0.889666 0.443789
vn 0.060828 -0.241425 0.968511
vn -0.015867 0.999874 0.000060
vn 0.021880 -0.921743 0.387183
vn 0.000113 0.307782 0.951457
vn 0.363113 -0.846201 0.389991
vn 0.121066 -0.301857 0.945635
vn -0.011876 0.748532 0.662992
vn 0.955477 0.295066 -0.000024
vn 0.821009 0.283238 -0.495703
vn 0.344714 0.706659 -0.617904
vn 0.351259 0.936278 0.000045
vn -0.004929 0.281241 -0.959624
vn 0.006086 -0.270350 0.962743
vn 0.032244 -0.269570 -0.962441
vn 0.113520 -0.914793 -0.387643
vn 0.344676 0.706554 0.618046
vn 0.820989 0.283144 0.495789
vn -0.012749 0.748065 -0.663503
vn 0.123079 -0.992397 -0.000000
vn 0.004753 -0.001382 -0.999988
vn 0.000414 -0.004309 0.999991
vn 0.113522 -0.914812 0.387596
vn -0.017040 0.999855 0.000024
vn -0.004924 0.281228 0.959628
vn 0.032242 -0.269568 0.962442
vn 0.036696 -0.264701 -0.963632
vn 0.126629 -0.906031 -0.403823
vn -0.012745 0.748042 0.663529
vn 0.138610 -0.990347 -0.000000
vn 0.004972 0.002783 -0.999984
vn 0.004753 -0.001392 0.999988
vn 0.126634 -0.906046 0.403787
vn 0.036692 -0.264713 0.963629
vn -0.027371 -0.999625 -0.000000
vn 0.066089 0.014064 -0.997715
vn 0.004966 0.002790 0.999984
vn 0.071731 0.333978 -0.939848
vn -0.163957 -0.986468 -0.000005
vn 0.238315 0.012524 -0.971107
vn 0.060360 0.720014 -0.691330
vn 0.398725 -0.917071 -0.000059
vn 0.066093 0.014042 0.997715
vn 0.301780 -0.194564 -0.933313
vn 0.172904 0.324459 -0.929963
vn 0.048007 0.998847 0.000036
vn 0.856122 -0.337453 -0.391383
vn 0.935917 -0.352222 -0.000058
vn 0.071734 0.333936 0.939862
vn 0.060349 0.719915 0.691433
vn 0.238310 0.012545 0.971108
vn 0.856130 -0.337403 0.391408
vn 0.301741 -0.194504 0.933338
vn 0.172898 0.324435 0.929972
vn -0.042248 0.239956 -0.969864
vn -0.091803 -0.220779 -0.970994
vn -0.232414 -0.149605 -0.961042
vn -0.179562 -0.048321 -0.982559
vn -0.255094 -0.966737 -0.018648
vn -0.079315 -0.229604 0.970047
vn -0.176562 -0.167359 0.969957
vn -0.112943 -0.993235 -0.026998
vn -0.026099 -0.179614 0.983391
vn -0.010140 0.255676 0.966709
vn -0.036139 0.237663 0.970675
vn -0.006701 0.999972 -0.003238
vn 0.003303 0.999993 -0.001852
vn -0.010073 0.258723 -0.965899
vn -0.024683 -0.180081 -0.983342
vn -0.075253 -0.997106 -0.010810
vn -0.010230 -0.138188 0.990353
vn -0.000795 0.236366 0.971664
vn -0.003341 0.999991 -0.002431
vn -0.000833 0.237978 -0.971270
vn -0.010932 -0.141984 -0.989809
vn -0.990838 -0.114000 -0.072422
vn -0.990838 -0.114000 -0.072422
vn -0.993507 -0.113463 0.008350
vn -0.993522 -0.113491 0.005869
vn -0.989901 -0.112235 0.086603
vn -0.989901 -0.112235 0.086603
vn 0.031104 0.999516 0.000067
vn 0.031489 0.998866 0.035710
vn 0.030678 0.998891 -0.035709
vn -0.679512 -0.733664 -0.000640
vn -0.679512 -0.733664 -0.000640
vn -0.679512 -0.733664 -0.000640
vn -0.679512 -0.733664 -0.000640
vn -0.679512 -0.733664 -0.000640
vn -0.152418 -0.213791 0.964916
vn -0.149922 -0.277950 0.948824
vn -0.971407 0.237420 -0.000356
vn -0.971407 0.237420 -0.000356
vn -0.971407 0.237420 -0.000356
vn -0.971407 0.237420 -0.000356
vn -0.127076 -0.058359 0.990175
vn -0.188029 0.119757 0.974835
vn -0.477225 0.878780 -0.001367
vn -0.477225 0.878780 -0.001367
vn -0.477225 0.878780 -0.001367
vn -0.477225 0.878780 -0.001367
vn -0.193448 -0.085835 -0.977349
vn -0.174648 -0.222625 -0.959133
vn -0.174648 -0.222625 -0.959133
s 1
g Knife_low
usemtl Knife_lowSG
f 1/4/1 3/5/2 7/6/3 4/2/4
f 5/12/5 2/3/6 1/1/1 4/11/4
f 9/8/7 18/25/8 25/52/9 30/23/10
f 4/7/4 7/19/3 18/25/8 9/8/7
f 32/47/11 22/40/12 16/41/13 21/46/14
f 16/41/13 20/208/15 21/46/14
f 30/62/10 40/63/16 28/27/17 9/24/7
f 7/6/3 3/5/2 8/20/18 16/18/13
f 13/209/19 21/46/14 20/208/15
f 34/53/20 25/52/9 18/25/8 22/44/12
f 13/209/19 39/68/21 33/67/22 21/46/14
f 4/9/4 9/24/7 28/27/17 10/26/23
f 7/19/3 16/201/13 22/44/12 18/25/8
f 4/10/4 11/28/24 15/29/25 5/13/5
f 30/202/10 25/54/9 35/71/26 40/72/16
f 5/12/5 13/14/19 6/16/27 2/3/6
f 16/210/13 8/21/18 14/36/28 20/38/15
f 4/9/4 10/26/23 27/31/29 11/30/24
f 11/28/24 29/58/30 38/59/31 15/29/25
f 25/54/9 34/69/20 53/70/32 35/71/26
f 13/35/19 20/38/15 14/36/28 6/15/27
f 5/13/5 15/29/25 39/39/21 13/203/19
f 40/63/16 51/78/33 41/57/34 28/27/17
f 29/60/30 11/30/24 27/31/29 37/61/35
f 28/27/17 41/57/34 26/55/36 10/26/23
f 45/77/37 39/39/21 15/29/25 38/59/31
f 22/40/12 32/47/11 53/70/32 34/69/20
f 35/71/26 55/91/38 51/90/33 40/72/16
f 29/204/30 37/74/35 46/76/39 38/75/31
f 27/31/29 10/26/23 26/55/36 36/56/40
f 53/70/32 56/93/41 55/91/38 35/71/26
f 37/61/35 27/31/29 36/56/40 77/73/42
f 38/75/31 46/76/39 60/86/43 45/85/37
f 51/78/33 58/92/44 52/81/45 41/57/34
f 32/47/11 54/65/46 56/93/41 53/70/32
f 39/68/21 45/85/37 60/86/43 33/67/22
f 41/57/34 52/81/45 42/80/47 26/55/36
f 57/94/48 58/96/44 51/90/33 55/91/38
f 46/76/39 37/74/35 77/116/42 75/106/49
f 21/46/14 31/64/50 54/65/46 32/47/11
f 36/56/40 26/55/36 42/80/47 76/79/51
f 56/93/41 64/95/52 57/94/48 55/91/38
f 60/86/43 46/76/39 75/106/49 67/99/53
f 102/139/54 91/128/55 96/129/56 104/142/57
f 21/46/14 33/67/22 61/66/58 31/64/50
f 77/73/42 36/56/40 76/79/51 80/117/59
f 33/67/22 60/86/43 67/99/53 61/66/58
f 122/171/60 121/158/61 113/156/62 124/157/63
f 104/142/57 96/129/56 100/137/64 106/143/65
f 54/65/46 59/97/66 64/95/52 56/93/41
f 58/92/44 71/109/67 72/110/68 52/81/45
f 122/172/60 124/176/63 131/177/69 125/173/70
f 100/137/64 115/141/71 114/160/72 106/143/65
f 82/115/73 75/106/49 77/116/42 80/205/59
f 52/81/45 72/110/68 78/113/74 42/80/47
f 115/141/71 103/140/75 120/159/76 114/160/72
f 57/94/48 79/112/77 71/111/67 58/96/44
f 130/162/78 127/174/79 128/180/80 136/183/81
f 31/64/50 62/98/82 59/97/66 54/65/46
f 76/79/51 42/80/47 78/113/74 81/118/83
f 67/99/53 75/106/49 82/115/73 74/107/84
f 128/181/80 134/189/85 146/191/86 136/190/81
f 31/64/50 61/66/58 68/100/87 62/98/82
f 61/66/58 67/99/53 74/107/84 68/100/87
f 137/167/88 119/152/89 110/153/90 117/165/91
f 64/95/52 83/103/92 79/112/77 57/94/48
f 80/117/59 76/79/51 81/118/83 86/119/93
f 71/109/67 84/120/94 85/121/95 72/110/68
f 137/167/88 117/165/91 138/192/96 143/193/97
f 59/97/66 63/101/98 83/103/92 64/95/52
f 72/110/68 85/121/95 87/124/99 78/113/74
f 79/112/77 88/123/100 84/122/94 71/111/67
f 82/115/73 80/205/59 86/206/93 89/125/101
f 81/118/83 78/113/74 87/124/99 90/127/102
f 62/98/82 69/102/103 63/101/98 59/97/66
f 83/103/92 91/128/55 88/123/100 79/112/77
f 74/107/84 82/115/73 89/125/101 93/114/104
f 86/119/93 81/118/83 90/127/102 92/126/105
f 84/120/94 94/135/106 95/132/107 85/121/95
f 62/98/82 68/100/87 73/108/108 69/102/103
f 68/100/87 74/107/84 93/114/104 73/108/108
f 85/121/95 95/132/107 97/136/109 87/124/99
f 63/101/98 96/129/56 91/128/55 83/103/92
f 88/123/100 98/134/110 94/133/106 84/122/94
f 89/125/101 86/206/93 92/207/105 99/130/111
f 90/127/102 87/124/99 97/136/109 101/138/112
f 69/102/103 100/137/64 96/129/56 63/101/98
f 121/158/61 95/132/107 94/135/106 113/156/62
f 91/128/55 102/139/54 98/134/110 88/123/100
f 92/126/105 90/127/102 101/138/112 116/131/113
f 93/114/104 89/125/101 99/130/111 103/140/75
f 95/132/107 121/158/61 123/170/114 97/136/109
f 98/134/110 108/145/115 113/149/62 94/133/106
f 69/102/103 73/108/108 115/141/71 100/137/64
f 73/108/108 93/114/104 103/140/75 115/141/71
f 101/138/112 97/136/109 123/170/114 127/174/79
f 99/130/111 92/207/105 116/163/113 140/164/116
f 102/139/54 105/144/117 108/145/115 98/134/110
f 121/158/61 122/171/60 126/175/118 123/170/114
f 127/174/79 130/162/78 116/131/113 101/138/112
f 108/145/115 112/150/119 124/176/63 113/149/62
f 105/144/117 102/139/54 104/142/57 107/146/120
f 103/140/75 99/130/111 140/164/116 120/159/76
f 127/174/79 123/170/114 126/175/118 128/180/80
f 122/171/60 125/178/70 129/179/121 126/175/118
f 140/164/116 116/163/113 130/184/78 142/195/122
f 112/150/119 133/185/123 131/177/69 124/176/63
f 105/144/117 109/151/124 112/150/119 108/145/115
f 106/143/65 111/147/125 107/146/120 104/142/57
f 131/177/69 133/185/123 132/168/126 125/173/70
f 128/180/80 126/175/118 129/179/121 134/182/85
f 109/151/124 105/144/117 107/146/120 110/148/90
f 125/178/70 132/186/126 135/187/127 129/179/121
f 120/159/76 140/164/116 142/195/122 139/169/128
f 119/155/89 132/168/126 133/185/123 112/150/119
f 106/143/65 114/160/72 118/161/129 111/147/125
f 139/169/128 118/161/129 114/160/72 120/159/76
f 110/148/90 119/155/89 112/150/119 109/151/124
f 142/195/122 130/184/78 136/190/81 144/196/130
f 134/182/85 129/179/121 135/187/127 145/188/131
f 111/147/125 117/154/91 110/148/90 107/146/120
f 137/167/88 135/187/127 132/186/126 119/152/89
f 146/191/86 134/189/85 145/198/131 147/199/132
f 144/196/130 136/190/81 146/191/86 147/199/132
f 139/169/128 142/195/122 144/196/130 141/194/133
f 111/147/125 118/161/129 138/166/96 117/154/91
f 137/167/88 143/193/97 145/188/131 135/187/127
f 141/194/133 138/166/96 118/161/129 139/169/128
f 143/197/97 144/196/130 147/199/132 145/198/131
f 138/166/96 141/194/133 144/196/130 143/197/97
f 49/88/134 149/89/135 161/239/136 160/221/137
f 150/200/138 148/225/139 162/226/140
f 151/105/141 65/83/142 148/225/139 150/200/138
f 65/83/142 44/32/143 66/227/144 148/225/139
f 44/84/143 50/51/145 70/213/146 66/104/144
f 50/51/145 23/50/147 49/214/134 70/213/146
f 23/48/147 48/49/148 149/89/135 49/88/134
f 48/49/148 151/87/141 150/235/138 149/89/135
f 47/82/149 43/34/150 65/83/142 151/105/141
f 43/34/150 12/17/151 44/32/143 65/83/142
f 12/33/151 24/37/152 50/51/145 44/84/143
f 24/37/152 17/22/153 23/50/147 50/51/145
f 17/42/153 19/43/154 48/49/148 23/48/147
f 151/87/141 48/49/148 19/43/154 47/45/149
f 1/1/1 2/3/6 43/34/150 47/82/149
f 2/3/6 6/16/27 12/17/151 43/34/150
f 6/15/27 14/36/28 24/37/152 12/33/151
f 14/36/28 8/21/18 17/22/153 24/37/152
f 8/20/18 3/5/2 19/43/154 17/42/153
f 1/4/1 47/45/149 19/43/154 3/5/2
f 162/234/140 161/239/136 150/235/138
s 9
f 154/218/155 155/211/156 157/216/157 156/219/158
f 156/219/158 157/216/157 159/215/159 158/212/160
s 1
f 66/104/144 70/213/146 157/216/161 155/211/162
f 49/214/134 159/215/163 157/216/161 70/213/146
s off
f 152/217/164 154/218/165 156/219/166 158/212/167 153/220/168
s 1
f 161/239/136 149/89/135 150/235/138
f 154/229/169 66/227/144 155/228/170
s off
f 160/236/171 161/237/172 162/238/173 163/233/174
s 1
f 163/240/175 162/226/140 148/225/139 66/227/144
f 152/230/176 66/227/144 154/229/169
s off
f 152/231/177 153/232/178 160/236/179 163/233/180
s 1
f 49/88/134 160/221/137 153/222/181
f 163/240/175 66/227/144 152/230/176
f 49/88/134 153/222/181 158/223/182 159/224/183
